Scanning dependencies of target oai_usrpdevif
Building CXX object CMakeFiles/oai_usrpdevif.dir/home/aa/aa/targets/ARCH/USRP/USERSPACE/LIB/usrp_lib.cpp.o
Linking CXX shared module liboai_usrpdevif.so
Built target oai_usrpdevif
